/*******************************************************************************
* ALMA - Atacama Large Millimiter Array
* (c) European Southern Observatory, 2011
*
* This library is free software; you can redistribute it and/or
* modify it under the terms of the GNU Lesser General Public
* License as published by the Free Software Foundation; either
* version 2.1 of the License, or (at your option) any later version.
*
* This library is distributed in the hope that it will be useful,
* but WITHOUT ANY WARRANTY; without even the implied warranty of
* MERCHANTABILITY or FITNESS FOR A PARTICULAR PURPOSE.  See the GNU
* Lesser General Public License for more details.
*
* You should have received a copy of the GNU Lesser General Public
* License along with this library; if not, write to the Free Software
* Foundation, Inc., 59 Temple Place, Suite 330, Boston, MA 02111-1307  USA
*
* "@(#) $Id: bulkDataNTReceiverImpl.i,v 1.27 2012/09/13 14:02:37 bjeram Exp $"
*
* who       when      what
* --------  --------  ----------------------------------------------
* bjeram  2011-04-19  created
*/

#include <sstream>
#include <Tokenizer_T.h>
#include "bulkDataNTReceiverImpl.h"

template<class TCallback>
BulkDataNTReceiverImpl<TCallback>::BulkDataNTReceiverImpl(const ACE_CString& name,maci::ContainerServices* containerServices) :
	CharacteristicComponentImpl(name,containerServices),
	parser_m(0),
	defaultFlowsCount_m(-1),
	fwdData2UserCBenabled_m(true)
{
	ACS_TRACE("BulkDataNTReceiverImpl<>::BulkDataNTReceiverImpl");
}//BulkDataNTReceiverImpl

template<class TCallback>
BulkDataNTReceiverImpl<TCallback>::~BulkDataNTReceiverImpl()
{
	ACS_TRACE("BulkDataNTReceiverImpl<>::~BulkDataNTReceiverImpl");
   if (parser_m)
	   delete parser_m;
}//~BulkDataNTReceiverImpl


template<class TCallback>
void BulkDataNTReceiverImpl<TCallback>::initialize()
{
	ACS_TRACE("BulkDataNTReceiverImpl<>::initialize");

	char buf[BUFSIZ];

	// get the DAO and read the alma/ branch of the component out from the CDB
	CDB::DAL_ptr dal_p = getContainerServices()->getCDB();
	if(CORBA::is_nil(dal_p))
	{
		ACS_SHORT_LOG((LM_ERROR,"BulkDataNTReceiverImpl<>::initialize error getting DAL reference"));
		ACSBulkDataError::AVOpenReceiverErrorExImpl err = ACSBulkDataError::AVOpenReceiverErrorExImpl(__FILE__,__LINE__,"BulkDataNTReceiverImpl::initialize");
		throw err.getAVOpenReceiverErrorEx();
	}

	ACE_CString CDBpath="alma/";
	CDBpath += name();

	CDB::DAO_ptr dao_p = dal_p->get_DAO_Servant(CDBpath.c_str());
	if(CORBA::is_nil(dao_p))
	{
		ACS_SHORT_LOG((LM_ERROR,"BulkDataNTReceiverImpl<>::initialize error getting DAO reference"));
		ACSBulkDataError::AVOpenReceiverErrorExImpl err = ACSBulkDataError::AVOpenReceiverErrorExImpl(__FILE__,__LINE__,"BulkDataNTReceiverImpl::initialize");
		throw err.getAVOpenReceiverErrorEx();
	}

	// Check which kind of configuration we have (the old "TCP"-based one, or the new schema-based one)
	char *recv_protocols = 0;
	bool useNewConfigMechanism = false;
	try {
		recv_protocols = dao_p->get_string("recv_protocols");
		ACE_OS::strcpy(buf,recv_protocols);
		// TODO: put log saying that old config mechanism is going to be used instead of the new one
	} catch(cdbErrType::CDBFieldDoesNotExistEx &ex) {
		useNewConfigMechanism = true;
	}

	if( useNewConfigMechanism ) {

		// Use the new mechanism to parse the XML document and create the streams/flows
		char *xmlNode = dal_p->get_DAO(CDBpath.c_str());

		try {
			// Parse the XML document and check if we got any configuration object
			parser_m = new AcsBulkdata::BulkDataConfigurationParser(name());
			parser_m->parseReceiverConfig(xmlNode);
			if( parser_m->getAllReceiverStreamNames().size() == 0 )
				ACS_SHORT_LOG((LM_WARNING,"BulkDataNTReceiverImpl<>::initialize No Receiver Streams configured, streams created in the future will have a default configuration. PLEASE CHECK CDB CONFIGURATION."));

		} catch(ACS_BD_Errors::CDBProblemExImpl &ex) {
			ACSBulkDataError::AVOpenReceiverErrorExImpl err = ACSBulkDataError::AVOpenReceiverErrorExImpl(ex,__FILE__,__LINE__,"BulkDataNTReceiverImpl::initialize");
			err.log(LM_DEBUG);
			throw err.getAVOpenReceiverErrorEx();
		} catch(...) {
			ACSErrTypeCommon::UnknownExImpl ex = ACSErrTypeCommon::UnknownExImpl(__FILE__,__LINE__,"BulkDataNTReceiverImpl::initialize");
			ACSBulkDataError::AVOpenReceiverErrorExImpl err = ACSBulkDataError::AVOpenReceiverErrorExImpl(ex,__FILE__,__LINE__,"BulkDataNTReceiverImpl::initialize");
			err.log(LM_DEBUG);
			throw err.getAVOpenReceiverErrorEx();
		}
	}
	else {

		// Use the old mechanism and remember the number of flows
		try
		{
			// Create default config objects for the stream and the necessary flows
			if(ACE_OS::strcmp(buf, "") != 0) {

				ACE_Tokenizer addressToken(buf);
				addressToken.delimiter('/');
				defaultFlowsCount_m = 0;
				while( addressToken.next() != 0 )
					defaultFlowsCount_m++;

				// TODO: Does this "> 19" condition make any sense?
				if( defaultFlowsCount_m < 0 || defaultFlowsCount_m > 19 ) {
					ACS_SHORT_LOG((LM_ERROR, "BulkDataNTReceiverImpl<>::initialize too many flows specified - maximum 19"));
					ACSBulkDataError::AVInvalidFlowNumberExImpl err = ACSBulkDataError::AVInvalidFlowNumberExImpl(__FILE__,__LINE__,"BulkDataNTReceiverImpl<>::initialize");
					throw err;
				}
			}

		}
		catch(ACSErr::ACSbaseExImpl &ex)
		{
			ACSBulkDataError::AVOpenReceiverErrorExImpl err = ACSBulkDataError::AVOpenReceiverErrorExImpl(ex,__FILE__,__LINE__,"BulkDataNTReceiverImpl::initialize");
			err.log(LM_DEBUG);
			throw err.getAVOpenReceiverErrorEx();
		}
		catch(...)
		{
			ACSErrTypeCommon::UnknownExImpl ex = ACSErrTypeCommon::UnknownExImpl(__FILE__,__LINE__,"BulkDataNTReceiverImpl::initialize");
			ACSBulkDataError::AVOpenReceiverErrorExImpl err = ACSBulkDataError::AVOpenReceiverErrorExImpl(ex,__FILE__,__LINE__,"BulkDataNTReceiverImpl::initialize");
			throw err.getAVOpenReceiverErrorEx();
		}
	} // if (useNewConfigMechanism)
}//initialize

template<class TCallback>
bool BulkDataNTReceiverImpl<TCallback>::usesOldConfigurationMechanism() {
	return (parser_m == 0);
}


template<class TCallback>
void BulkDataNTReceiverImpl<TCallback>::cleanUp()
{
	ACS_TRACE("BulkDataNTReceiverImpl<>::cleanUp");
	closeReceiver();
   
}//cleanUp

template<class TCallback>
void BulkDataNTReceiverImpl<TCallback>::openReceiver()
{
	ACS_TRACE(__PRETTY_FUNCTION__);

	// check if initialize has been called
	if( parser_m == 0 && defaultFlowsCount_m == -1 ) {
		acsErrTypeLifeCycle::LifeCycleExImpl lcEx = acsErrTypeLifeCycle::LifeCycleExImpl(__FILE__,__LINE__,__PRETTY_FUNCTION__);
		lcEx.log(LM_DEBUG);
		throw lcEx.getacsErrTypeLifeCycleEx();
	}

	try {

		// With the old config mechanism only one stream, namely "DefaultStream", is allowed
		if( usesOldConfigurationMechanism() ) {
		    ACE_GUARD (ACE_Recursive_Thread_Mutex, proSect1, rcvStreamMapMutex_m); // protect the rcvs map
			if( receiverStreams_m.find("DefaultStream") != receiverStreams_m.end() )
				return;

			ACS_SHORT_LOG((LM_NOTICE,"BulkDataNTReceiverImpl<>::openReceiver Opening receiver stream 'DefaultStream' with '%d' flows", defaultFlowsCount_m));
			AcsBulkdata::BulkDataNTReceiverStream<TCallback>* stream = createDefaultReceiverStream(0);
			receiverStreams_m["DefaultStream"] = stream;
			return;
		}

		// With the new configuration mechanism check all the configured receiver streams
		// and open them all (if not already opened)
		std::set<const char *> streamNames = parser_m->getAllReceiverStreamNames();
		std::set<const char *>::iterator it;
		ACE_GUARD (ACE_Recursive_Thread_Mutex, proSect2, rcvStreamMapMutex_m); // protect the rcvs map
		for(it = streamNames.begin(); it != streamNames.end(); it++) {

			// Double check that we don't re-create existing streams
			if( receiverStreams_m.find(*it) != receiverStreams_m.end() )
				continue;

			ACS_SHORT_LOG((LM_INFO,"BulkDataNTReceiverImpl<>::openReceiver Opening receiver stream '%s' with configuration from CDB", *it));
			AcsBulkdata::BulkDataNTReceiverStream<TCallback>* stream = createReceiverStream(*it, *it);
			receiverStreams_m[*it] = stream;
		}
	} catch(ACS_BD_Errors::StreamCreateProblemExImpl &ex) {
		ACSBulkDataError::AVOpenReceiverErrorExImpl err = ACSBulkDataError::AVOpenReceiverErrorExImpl(ex,__FILE__,__LINE__,__PRETTY_FUNCTION__);
		err.log(LM_DEBUG);
		throw err.getAVOpenReceiverErrorEx();
	} catch(ACS_BD_Errors::FlowCreateProblemExImpl &ex) {
		ACSBulkDataError::AVOpenReceiverErrorExImpl err = ACSBulkDataError::AVOpenReceiverErrorExImpl(ex,__FILE__,__LINE__,__PRETTY_FUNCTION__);
		err.log(LM_DEBUG);
		throw err.getAVOpenReceiverErrorEx();
	} catch(...) {
		ACSErrTypeCommon::UnknownExImpl ex = ACSErrTypeCommon::UnknownExImpl(__FILE__,__LINE__,__PRETTY_FUNCTION__);
		ACSBulkDataError::AVOpenReceiverErrorExImpl err = ACSBulkDataError::AVOpenReceiverErrorExImpl(ex,__FILE__,__LINE__,__PRETTY_FUNCTION__);
		throw err.getAVOpenReceiverErrorEx();
	}

}//openReceiver

template<class TCallback>
void BulkDataNTReceiverImpl<TCallback>::openReceiverStream(const char *stream_name)
{
	ACS_TRACE(__PRETTY_FUNCTION__);
	this->openReceiverStreamCfg(stream_name, stream_name);
}

template<class TCallback>
void BulkDataNTReceiverImpl<TCallback>::openReceiverStreamCfg (const char * stream_name,  const char * stream_cfg)
{
	ACS_TRACE(__PRETTY_FUNCTION__);

	std::map<std::string, AcsBulkdata::BulkDataConfigurationParser::ReceiverCfg>::iterator it;
	AcsBulkdata::BulkDataNTReceiverStream<TCallback> *stream = 0;

	// check if initialize has been called
	if( parser_m == 0 && defaultFlowsCount_m == -1 ) {
		acsErrTypeLifeCycle::LifeCycleExImpl lcEx = acsErrTypeLifeCycle::LifeCycleExImpl(__FILE__,__LINE__,__PRETTY_FUNCTION__);
		lcEx.log(LM_DEBUG);
		throw lcEx.getacsErrTypeLifeCycleEx();
	}

	ACE_GUARD (ACE_Recursive_Thread_Mutex, proSect, rcvStreamMapMutex_m); // protect the rcvs map
	// double-check that the stream is already opened
	if( receiverStreams_m.find(stream_name) != receiverStreams_m.end() ) {
		ACS_SHORT_LOG((LM_NOTICE,"BulkDataNTReceiverImpl<>::openReceiverStream Receiver stream '%s' is already opened, won't try to open it again", stream_name));
		return;
	}

	try {

		// With the old config mechanism only one stream, namely "DefaultStream", is allowed
		// If someone asked to open exactly that stream, check and open it
		if( usesOldConfigurationMechanism() && ACE_OS::strcmp("DefaultStream", stream_name) ) {
			if( receiverStreams_m.find("DefaultStream") != receiverStreams_m.end() )
				return;

			ACS_SHORT_LOG((LM_NOTICE,"BulkDataNTReceiverImpl<>::openReceiverStream Opening receiver stream 'DefaultStream' with '%d' flows", defaultFlowsCount_m));
			AcsBulkdata::BulkDataNTReceiverStream<TCallback>* stream = createDefaultReceiverStream(stream_cfg);
			receiverStreams_m["DefaultStream"] = stream;
			return;
		}

		// With the new configuration mechanism, the parser may contains a configuration for the stream
		// If available, use it; otherwise, create a default stream
		// We iterate instead of doing .find() because we have const char * instead of strings
		std::set<const char*> streamNames = parser_m->getAllReceiverStreamNames();
		bool isConfigured = false;
		for(std::set<const char*>::iterator it = streamNames.begin(); it != streamNames.end(); it++)
			if( ACE_OS::strcmp(stream_name, *it) == 0 ) {
				isConfigured = true;
				break;
			}

		if( isConfigured ) {
			ACS_SHORT_LOG((LM_INFO, "BulkDataNTReceiverImpl<>::openReceiverStream Opening receiver stream '%s' with configuration from CDB", stream_name));
			stream = createReceiverStream(stream_name, stream_cfg);
		}
		else {
			ACS_SHORT_LOG((LM_NOTICE, "BulkDataNTReceiverImpl<>::openReceiverStream Opening receiver stream '%s' with default configuration", stream_name));
			stream = new AcsBulkdata::BulkDataNTReceiverStream<TCallback>(stream_name);
		}

		receiverStreams_m[stream_name] = stream;

	} catch(ACS_BD_Errors::StreamCreateProblemExImpl &ex) {
		ACSBulkDataError::AVOpenReceiverErrorExImpl err = ACSBulkDataError::AVOpenReceiverErrorExImpl(ex,__FILE__,__LINE__,__PRETTY_FUNCTION__);
		err.log(LM_DEBUG);
		throw err.getAVOpenReceiverErrorEx();
	} catch(ACS_BD_Errors::FlowCreateProblemExImpl &ex) {
		ACSBulkDataError::AVOpenReceiverErrorExImpl err = ACSBulkDataError::AVOpenReceiverErrorExImpl(ex,__FILE__,__LINE__,__PRETTY_FUNCTION__);
		err.log(LM_DEBUG);
		throw err.getAVOpenReceiverErrorEx();
	} catch(...) {
		ACSErrTypeCommon::UnknownExImpl ex = ACSErrTypeCommon::UnknownExImpl(__FILE__,__LINE__,__PRETTY_FUNCTION__);
		ACSBulkDataError::AVOpenReceiverErrorExImpl err = ACSBulkDataError::AVOpenReceiverErrorExImpl(ex,__FILE__,__LINE__,__PRETTY_FUNCTION__);
		throw err.getAVOpenReceiverErrorEx();
	}

}

template<class TCallback>
void BulkDataNTReceiverImpl<TCallback>::openReceiverFlow (const char * stream_name, const char * flow_name)
{
	ACS_TRACE(__PRETTY_FUNCTION__);
	ACS_SHORT_LOG((LM_ERROR,"BulkDataNTReceiverImpl<TCallback>::openReceiverFlow  NOT implemented yet."));
}

template<class TCallback>
void BulkDataNTReceiverImpl<TCallback>::openReceiverFlowCfg (const char * stream_name, const char * flow_name, const char * flow_cfg)
{
	ACS_TRACE(__PRETTY_FUNCTION__);
	ACS_SHORT_LOG((LM_ERROR,"BulkDataNTReceiverImpl<TCallback>::openReceiverFlowCfg  NOT implemented yet."));
}

template<class TCallback>
AcsBulkdata::BulkDataNTReceiverStream<TCallback>* BulkDataNTReceiverImpl<TCallback>::createReceiverStream(const char *stream_name, const char *stream_cfg) {

	// Check that the configuration exists. If not, then fail miserably
	AcsBulkdata::ReceiverStreamConfiguration *cfg = parser_m->getReceiverStreamConfiguration(stream_cfg);
	if( cfg == 0 )
		throw ACS_BD_Errors::StreamCreateProblemExImpl(__FILE__, __LINE__, __PRETTY_FUNCTION__);

	// Create the stream with the configuration object
	AcsBulkdata::BulkDataNTReceiverStream<TCallback> *stream = 0;
	stream = new AcsBulkdata::BulkDataNTReceiverStream<TCallback>(stream_name, *cfg, fwdData2UserCBenabled_m);

	// Create also all the necessary flows that have been configured in the CDB *for the given configuration name*
	std::set<const char *> flowNames = parser_m->getAllReceiverFlowNames(stream_cfg);
	std::set<const char *>::iterator it;
	for(it = flowNames.begin(); it != flowNames.end(); it++) {
		const char * flowName = *it;
		AcsBulkdata::ReceiverFlowConfiguration *fCfg = parser_m->getReceiverFlowConfiguration(stream_cfg, flowName);
		if( cfg == 0 )
			throw ACS_BD_Errors::FlowCreateProblemExImpl(__FILE__, __LINE__, __PRETTY_FUNCTION__);

		stream->createFlow(flowName, *fCfg);
	}

	return stream;
}

template<class TCallback>
AcsBulkdata::BulkDataNTReceiverStream<TCallback>* BulkDataNTReceiverImpl<TCallback>::createDefaultReceiverStream(const char *stream_cfg) {

	// Check that the configuration exists (if given)
	// Anyway; this only makes sense if we're using the new configuration parser; otherwise it doesn't
	// and we should throw an exception
	AcsBulkdata::ReceiverStreamConfiguration *cfg = 0;
	if( stream_cfg != 0 ) {
		if( parser_m == 0 ) {
			ACS_BD_Errors::StreamCreateProblemExImpl ex = ACS_BD_Errors::StreamCreateProblemExImpl(__FILE__, __LINE__, __PRETTY_FUNCTION__);
			ex.setStreamName("DefaultStream");
			ex.setMemberValue("reason", "Tried to create 'DefaultStream' with a given configuration, but using the old configuration mechanism");
			throw ex;
		}
		cfg = parser_m->getReceiverStreamConfiguration(stream_cfg);
	}

	// Create the default stream
	// If a configuration has been given, use it to get the flows to be created
	AcsBulkdata::BulkDataNTReceiverStream<TCallback> *stream = 0;
	if( cfg != 0 ) {
		stream = new AcsBulkdata::BulkDataNTReceiverStream<TCallback>("DefaultStream", *cfg, fwdData2UserCBenabled_m);

		std::set<const char *> flowNames = parser_m->getAllReceiverFlowNames(stream_cfg);
		std::set<const char *>::iterator it;
		for(it = flowNames.begin(); it != flowNames.end(); it++) {
			const char * flowName = *it;
			AcsBulkdata::ReceiverFlowConfiguration *fCfg = parser_m->getReceiverFlowConfiguration(stream_cfg, flowName);
			if( cfg == 0 )
				throw ACS_BD_Errors::FlowCreateProblemExImpl(__FILE__, __LINE__, __PRETTY_FUNCTION__);

			stream->createFlow(flowName, *fCfg);
		}
	}
	else {
		AcsBulkdata::ReceiverStreamConfiguration defaultCfg;
		stream = new AcsBulkdata::BulkDataNTReceiverStream<TCallback>("DefaultStream", defaultCfg, fwdData2UserCBenabled_m);

		// Add the specified of flows
		for(int i=0; i < defaultFlowsCount_m; i++) {
			std::stringstream s;
			s << "Flow" << i;
			stream->createFlow(s.str().c_str());
		}
	}

	return stream;
}

template<class TCallback>
void BulkDataNTReceiverImpl<TCallback>::closeReceiver()
{
	ACS_TRACE("BulkDataNTReceiverImpl<>::closeReceiver");

	try
	{
		ACE_GUARD (ACE_Recursive_Thread_Mutex, proSect, rcvStreamMapMutex_m); // protect the rcvs map
		typename StreamMap::iterator it;
		for( it = receiverStreams_m.begin(); it != receiverStreams_m.end(); ) {
			ACS_SHORT_LOG((LM_INFO,"BulkDataNTReceiverImpl<>::closeReceiver Closing receiver stream '%s'", it->first.c_str()));

			// We increate the iterator first and then remove the previous value
			// from the map since after calling map::erase(it) the erased it
			// becomes invalid
			typename StreamMap::iterator itToDelete = it;
			it++;
			delete itToDelete->second;
			receiverStreams_m.erase(itToDelete);
		}
	}
	catch(ACSErr::ACSbaseExImpl &ex)
	{
		ACSBulkDataError::AVCloseReceiverErrorExImpl err = ACSBulkDataError::AVCloseReceiverErrorExImpl(ex,__FILE__,__LINE__,"BulkDataNTReceiverImpl::closeReceiver");
		err.log(LM_DEBUG);
		throw err.getAVCloseReceiverErrorEx();
	}
	catch(...)
	{
		ACSErrTypeCommon::UnknownExImpl ex = ACSErrTypeCommon::UnknownExImpl(__FILE__,__LINE__,"BulkDataNTReceiverImpl::closeReceiver");
		ACSBulkDataError::AVCloseReceiverErrorExImpl err = ACSBulkDataError::AVCloseReceiverErrorExImpl(ex,__FILE__,__LINE__,"BulkDataNTReceiverImpl::closeReceiver");
		throw err.getAVCloseReceiverErrorEx();
	}
}//closeReceiver

template<class TCallback>
void BulkDataNTReceiverImpl<TCallback>::closeReceiverStream(const char *stream_name)
{
	ACE_GUARD (ACE_Recursive_Thread_Mutex, proSect1, rcvStreamMapMutex_m); // protect the rcvs map
	typename StreamMap::iterator it = receiverStreams_m.find(stream_name);

	// TODO: should we fail more miserably or is it OK to be good with people?
	if( it == receiverStreams_m.end() ) {
		ACS_SHORT_LOG((LM_ERROR,"BulkDataNTReceiverImpl<>::closeReceiverStream Receiver stream '%s' is not opened, won't try to close it", stream_name));
		return;
	}

	try
	{
		ACS_SHORT_LOG((LM_ERROR,"BulkDataNTReceiverImpl<>::closeReceiverStream Closing receiver stream '%s'", stream_name));
		delete it->second;
		receiverStreams_m.erase(it);
	}
	catch(ACSErr::ACSbaseExImpl &ex)
	{
		ACSBulkDataError::AVCloseReceiverErrorExImpl err = ACSBulkDataError::AVCloseReceiverErrorExImpl(ex,__FILE__,__LINE__,__PRETTY_FUNCTION__);
		err.log(LM_DEBUG);
		throw err.getAVCloseReceiverErrorEx();
	}
	catch(...)
	{
		ACSErrTypeCommon::UnknownExImpl ex = ACSErrTypeCommon::UnknownExImpl(__FILE__,__LINE__,__PRETTY_FUNCTION__);
		ACSBulkDataError::AVCloseReceiverErrorExImpl err = ACSBulkDataError::AVCloseReceiverErrorExImpl(ex,__FILE__,__LINE__,__PRETTY_FUNCTION__);
		throw err.getAVCloseReceiverErrorEx();
	}
}

template<class TCallback>
bulkdata::BulkDataReceiverConfig * BulkDataNTReceiverImpl<TCallback>::getReceiverConfig() {
	//TBD
	return NULL;
}//getReceiverConfig

template<class TCallback>
void BulkDataNTReceiverImpl<TCallback>::setRecvName(const char *recvName)
{
	ACS_TRACE("BulkDataNTReceiverImpl<>::setRecvName");

	typename StreamMap::iterator it = receiverStreams_m.begin();
	for(; it != receiverStreams_m.end(); it++)
		(it->second)->setReceiverName(recvName);
}//setRecvName

template<class TCallback>
AcsBulkdata::BulkDataNTReceiverStream<TCallback>* BulkDataNTReceiverImpl<TCallback>::getReceiverStream(const char *streamName)
{
	// Implementation should change when IDL changes. It currently returns the first stream, whatever it is
	if( receiverStreams_m.size() != 0 )
	{
		typename StreamMap::iterator it;
		it = receiverStreams_m.find(streamName);
		if (it!=receiverStreams_m.end())
		{
			return it->second;
		}
	}//if

	//here we come just in case of an error
	ACS_BD_Errors::StreamNotExistExImpl ex(__FILE__, __LINE__, __PRETTY_FUNCTION__);
	ex.setStreamName(streamName);
	throw ex;
}//getReceiverStream

template<class TCallback>
void BulkDataNTReceiverImpl<TCallback>::fwdData2UserCB(CORBA::Boolean enable)
{
	AUTO_TRACE(__PRETTY_FUNCTION__);
	typename StreamMap::iterator it = receiverStreams_m.begin();

	if (enable)
	{
		for(; it != receiverStreams_m.end(); it++)
			(it->second)->enableCallingCBforAllFlows();
		fwdData2UserCBenabled_m=true;
	}else
	{
		for(; it != receiverStreams_m.end(); it++)
			(it->second)->disableCallingCBforAllFlows();
		fwdData2UserCBenabled_m=false;
	}//if-else
}//fwdData2UserCB

template<class TCallback>
void BulkDataNTReceiverImpl<TCallback>::resetReceiver() {
	closeReceiver();
	openReceiver();
}
